^C:\USERS\SHEHA_XP3YXP0\ONEDRIVE\DOCUMENTI\VISUAL STUDIO 2019\PROJECTS\FILEELISTE\FILEELISTE\MAIN.CPP|C:\USERS\SHEHA_XP3YXP0\ONEDRIVE\DOCUMENTI\VISUAL STUDIO 2019\PROJECTS\FILEELISTE\FILEELISTE\PROVA.CPP
C:\USERS\SHEHA_XP3YXP0\ONEDRIVE\DOCUMENTI\VISUAL STUDIO 2019\PROJECTS\FILEELISTE\FILEELISTE\DEBUG\VC142.PDB
C:\USERS\SHEHA_XP3YXP0\ONEDRIVE\DOCUMENTI\VISUAL STUDIO 2019\PROJECTS\FILEELISTE\FILEELISTE\DEBUG\VC142.IDB
C:\USERS\SHEHA_XP3YXP0\ONEDRIVE\DOCUMENTI\VISUAL STUDIO 2019\PROJECTS\FILEELISTE\FILEELISTE\DEBUG\PROVA.OBJ
C:\USERS\SHEHA_XP3YXP0\ONEDRIVE\DOCUMENTI\VISUAL STUDIO 2019\PROJECTS\FILEELISTE\FILEELISTE\DEBUG\MAIN.OBJ
^C:\USERS\SHEHA_XP3YXP0\ONEDRIVE\DOCUMENTI\VISUAL STUDIO 2019\PROJECTS\FILEELISTE\FILEELISTE\PROVA.CPP
C:\USERS\SHEHA_XP3YXP0\ONEDRIVE\DOCUMENTI\VISUAL STUDIO 2019\PROJECTS\FILEELISTE\FILEELISTE\DEBUG\VC142.PDB
^C:\USERS\SHEHA_XP3YXP0\ONEDRIVE\DOCUMENTI\VISUAL STUDIO 2019\PROJECTS\FILEELISTE\FILEELISTE\MAIN.CPP
C:\USERS\SHEHA_XP3YXP0\ONEDRIVE\DOCUMENTI\VISUAL STUDIO 2019\PROJECTS\FILEELISTE\FILEELISTE\DEBUG\VC142.PDB
C:\USERS\SHEHA_XP3YXP0\ONEDRIVE\DOCUMENTI\VISUAL STUDIO 2019\PROJECTS\FILEELISTE\FILEELISTE\DEBUG\VC142.IDB
C:\USERS\SHEHA_XP3YXP0\ONEDRIVE\DOCUMENTI\VISUAL STUDIO 2019\PROJECTS\FILEELISTE\FILEELISTE\DEBUG\MAIN.OBJ
