^C:\USERS\SHEHA_XP3YXP0\ONEDRIVE\DOCUMENTI\VISUAL STUDIO 2019\PROJECTS\FILEELISTE\FILEELISTE\DEBUG\MAIN.OBJ|C:\USERS\SHEHA_XP3YXP0\ONEDRIVE\DOCUMENTI\VISUAL STUDIO 2019\PROJECTS\FILEELISTE\FILEELISTE\DEBUG\PROVA.OBJ
C:\USERS\SHEHA_XP3YXP0\ONEDRIVE\DOCUMENTI\VISUAL STUDIO 2019\PROJECTS\FILEELISTE\DEBUG\FILEELISTE.EXE
C:\USERS\SHEHA_XP3YXP0\ONEDRIVE\DOCUMENTI\VISUAL STUDIO 2019\PROJECTS\FILEELISTE\DEBUG\FILEELISTE.ILK
C:\USERS\SHEHA_XP3YXP0\ONEDRIVE\DOCUMENTI\VISUAL STUDIO 2019\PROJECTS\FILEELISTE\DEBUG\FILEELISTE.PDB
